Quiz #1
…
df=tbl_df(d)
df

## # A tibble: 1,000 x 10
##       id first_name last_name gender   height   weight zombies_killed
##    <int>      <chr>     <chr>  <chr>    <dbl>    <dbl>          <int>
##  1     1      Sarah    Little Female 62.88951 132.0872              2
##  2     2       Mark    Duncan   Male 67.80277 146.3753              5
##  3     3    Brandon     Perez   Male 72.12908 152.9370              1
##  4     4      Roger   Coleman   Male 66.78484 129.7418              5
##  5     5      Tammy    Powell Female 64.71832 132.4265              4
##  6     6    Anthony     Green   Male 71.24326 152.5246              1
##  7     7    Theresa  Hamilton Female 70.26459 160.2569              0
##  8     8    Phyllis   Jenkins Female 59.82760 108.8093              4
##  9     9     Steven      Long   Male 68.59963 152.9015              9
## 10    10    Russell    Chavez   Male 72.81769 168.5616              2
## # ... with 990 more rows, and 3 more variables: years_of_education <int>,
## #   major <chr>, age <dbl>

#only get first and last names of females survivors using piping

surf <- df %>% #name it somethign new
  select(first_name, last_name, gender) %>% #select only the colums of names and gender
  filter(gender=="Female") %>% #select rows only where gender==female
  select(first_name, last_name) #then only get teh columns of names... propbably could have done filter FIRST and then this.. but this works i think...
surf

## # A tibble: 494 x 2
##    first_name last_name
##         <chr>     <chr>
##  1      Sarah    Little
##  2      Tammy    Powell
##  3    Theresa  Hamilton
##  4    Phyllis   Jenkins
##  5     Louise      Hall
##  6       Anne     Garza
##  7      Sarah    Weaver
##  8     Denise  Richards
##  9       Jean    Harris
## 10     Cheryl   Sanders
## # ... with 484 more rows
…
df=tbl_df(d)
df

## # A tibble: 1,000 x 10
##       id first_name last_name gender   height   weight zombies_killed
##    <int>      <chr>     <chr>  <chr>    <dbl>    <dbl>          <int>
##  1     1      Sarah    Little Female 62.88951 132.0872              2
##  2     2       Mark    Duncan   Male 67.80277 146.3753              5
##  3     3    Brandon     Perez   Male 72.12908 152.9370              1
##  4     4      Roger   Coleman   Male 66.78484 129.7418              5
##  5     5      Tammy    Powell Female 64.71832 132.4265              4
##  6     6    Anthony     Green   Male 71.24326 152.5246              1
##  7     7    Theresa  Hamilton Female 70.26459 160.2569              0
##  8     8    Phyllis   Jenkins Female 59.82760 108.8093              4
##  9     9     Steven      Long   Male 68.59963 152.9015              9
## 10    10    Russell    Chavez   Male 72.81769 168.5616              2
## # ... with 990 more rows, and 3 more variables: years_of_education <int>,
## #   major <chr>, age <dbl>

#only get first and last names of females survivors using piping

surf <- df %>% #name it somethign new
  select(first_name, last_name, height, weight, zombies_killed, gender) %>% #select only the colums of names and gender
  filter(gender=="Female") %>% #select rows only where gender==female
  select(first_name, last_name, height, weight, zombies_killed) #then only get teh columns of names... propbably could have done filter FIRST and then this.. but this works i think...

surf

## # A tibble: 494 x 5
##    first_name last_name   height   weight zombies_killed
##         <chr>     <chr>    <dbl>    <dbl>          <int>
##  1      Sarah    Little 62.88951 132.0872              2
##  2      Tammy    Powell 64.71832 132.4265              4
##  3    Theresa  Hamilton 70.26459 160.2569              0
##  4    Phyllis   Jenkins 59.82760 108.8093              4
##  5     Louise      Hall 65.88747 131.5336              5
##  6       Anne     Garza 62.74435 127.1145              3
##  7      Sarah    Weaver 63.17104 123.2177              1
##  8     Denise  Richards 62.40083 120.7950              3
##  9       Jean    Harris 63.32658 129.7149              1
## 10     Cheryl   Sanders 66.21361 147.5891              1
## # ... with 484 more rows

okay so now graph difference betwee zombies killed by height, between geight categories

surf=mutate(surf, tall= height>=65 ,short= height<65)
surf

## # A tibble: 494 x 7
##    first_name last_name   height   weight zombies_killed  tall short
##         <chr>     <chr>    <dbl>    <dbl>          <int> <lgl> <lgl>
##  1      Sarah    Little 62.88951 132.0872              2 FALSE  TRUE
##  2      Tammy    Powell 64.71832 132.4265              4 FALSE  TRUE
##  3    Theresa  Hamilton 70.26459 160.2569              0  TRUE FALSE
##  4    Phyllis   Jenkins 59.82760 108.8093              4 FALSE  TRUE
##  5     Louise      Hall 65.88747 131.5336              5  TRUE FALSE
##  6       Anne     Garza 62.74435 127.1145              3 FALSE  TRUE
##  7      Sarah    Weaver 63.17104 123.2177              1 FALSE  TRUE
##  8     Denise  Richards 62.40083 120.7950              3 FALSE  TRUE
##  9       Jean    Harris 63.32658 129.7149              1 FALSE  TRUE
## 10     Cheryl   Sanders 66.21361 147.5891              1  TRUE FALSE
## # ... with 484 more rows
…
